\relax 
\providecommand\hyper@newdestlabel[2]{}
\providecommand\HyperFirstAtBeginDocument{\AtBeginDocument}
\HyperFirstAtBeginDocument{\ifx\hyper@anchor\@undefined
\global\let\oldcontentsline\contentsline
\gdef\contentsline#1#2#3#4{\oldcontentsline{#1}{#2}{#3}}
\global\let\oldnewlabel\newlabel
\gdef\newlabel#1#2{\newlabelxx{#1}#2}
\gdef\newlabelxx#1#2#3#4#5#6{\oldnewlabel{#1}{{#2}{#3}}}
\AtEndDocument{\ifx\hyper@anchor\@undefined
\let\contentsline\oldcontentsline
\let\newlabel\oldnewlabel
\fi}
\fi}
\global\let\hyper@last\relax 
\gdef\HyperFirstAtBeginDocument#1{#1}
\providecommand\HyField@AuxAddToFields[1]{}
\providecommand\HyField@AuxAddToCoFields[2]{}
\citation{HK}
\citation{MG}
\citation{Pan}
\citation{Boney96}
\bibstyle{plainnat}
\bibdata{Harmonic}
\bibcite{Boney96}{{1}{1996}{{Boney et~al.}}{{Boney, Tewfik, and Hamdy}}}
\bibcite{MG}{{2}{1994}{{Goossens et~al.}}{{Goossens, Mittelbach, and Samarin}}}
\bibcite{HK}{{3}{1999}{{Kopka and Daly}}{{}}}
\bibcite{Pan}{{4}{1995}{{Pan}}{{}}}
