This is BibTeX, Version 0.99d (TeX Live 2013/Debian)
Capacity: max_strings=35307, hash_size=35307, hash_prime=30011
The top-level auxiliary file: Harmonic.aux
The style file: plainnat.bst
Database file #1: Harmonic.bib
You've used 4 entries,
            2773 wiz_defined-function locations,
            619 strings with 5237 characters,
and the built_in function-call counts, 1835 in all, are:
= -- 155
> -- 91
< -- 3
+ -- 31
- -- 27
* -- 137
:= -- 278
add.period$ -- 12
call.type$ -- 4
change.case$ -- 19
chr.to.int$ -- 4
cite$ -- 8
duplicate$ -- 96
empty$ -- 162
format.name$ -- 33
if$ -- 393
int.to.chr$ -- 1
int.to.str$ -- 1
missing$ -- 6
newline$ -- 28
num.names$ -- 16
pop$ -- 48
preamble$ -- 1
purify$ -- 17
quote$ -- 0
skip$ -- 72
stack$ -- 0
substring$ -- 65
swap$ -- 18
text.length$ -- 1
text.prefix$ -- 0
top$ -- 0
type$ -- 34
warning$ -- 0
while$ -- 15
width$ -- 0
write$ -- 59
